Starting TensorBoard b'54' at http://3fb37f70bd96:6006
(Press CTRL+C to quit)
Starting TensorBoard b'54' at http://aa105af43e90:6006
(Press CTRL+C to quit)
WARNING:tensorflow:Deleting accumulator 'basic/validation'
WARNING:tensorflow:Deleting accumulator 'basic/train'
